{
  "project_info": {
    "project_number": "169352698437",
    "firebase_url": "https://dndcompanionapp.firebaseio.com",
    "project_id": "dndcompanionapp",
    "storage_bucket": "dndcompanionapp.appspot.com"
  },
  "client": [
    {
      "client_info": {
        "mobilesdk_app_id": "1:169352698437:android:c98cf152d013d6702c212c",
        "android_client_info": {
          "package_name": "com.jcd.dndcompanionapp"
        }
      },
      "oauth_client": [
        {
          "client_id": "169352698437-1cpnfo1q1hbcrm59ff94fhu32nvt250b.apps.googleusercontent.com",
          "client_type": 1,
          "android_info": {
            "package_name": "com.jcd.dndcompanionapp",
            "certificate_hash": "b5bf5959ec30ef1930d3369a9c5df07ed5f545f6"
          }
        },
        {
          "client_id": "169352698437-0io7n0t7bcmon37bmk2m74mhjrkotb1m.apps.googleusercontent.com",
          "client_type": 3
        }
      ],
      "api_key": [
        {
          "current_key": "AIzaSyBE1cfaWHuHYJ6iBkSHjRzxNQlTo4OVUA4"
        }
      ],
      "services": {
        "appinvite_service": {
          "other_platform_oauth_client": [
            {
              "client_id": "169352698437-0io7n0t7bcmon37bmk2m74mhjrkotb1m.apps.googleusercontent.com",
              "client_type": 3
            }
          ]
        }
      }
    }
  ],
  "configuration_version": "1"
}